…
# Run LC model using simulated test results to correct prevalence for test error
 fit <- run.LC.model(sim_data$test_results, num_tests = 4,
                       data_ID = "sim", model_name = "basic_sim",
                      dependency_groups = NULL, covariates = NULL,
                      iter=1000, chains=1, warmup=500)
#> [1] "test_names: 1, 2, 3, 4"
#> [1] "col_names_data: Individuals, test1, test2, test3, test4"
#> [1] "col_names_defined: N, 1, 2, 3, 4"
#> [1] "col_names: N, 1, 2, 3, 4"
#> [1] "numeric_cols: 1, 2, 3, 4"
#> [1] "test_result_data_long:"
#> # A tibble: 400 × 3
#>        N T         y
#>    <int> <chr> <dbl>
#>  1     1 1         0
#>  2     1 2         0
#>  3     1 3         0
#>  4     1 4         0
#>  5     2 1         1
#>  6     2 2         1
#>  7     2 3         1
#>  8     2 4         1
#>  9     3 1         0
#> 10     3 2         0
#> # ℹ 390 more rows
#> [1] "test_data_long (no delay data):"
#> # A tibble: 400 × 3
#>        N T         y
#>    <int> <chr> <dbl>
#>  1     1 1         0
#>  2     1 2         0
#>  3     1 3         0
#>  4     1 4         0
#>  5     2 1         1
#>  6     2 2         1
#>  7     2 3         1
#>  8     2 4         1
#>  9     3 1         0
#> 10     3 2         0
#> # ℹ 390 more rows
#> [1] "test_data_long (after removing NAs):"
#> # A tibble: 353 × 3
#>        N T         y
#>    <int> <chr> <dbl>
#>  1     1 1         0
#>  2     1 2         0
#>  3     1 3         0
#>  4     1 4         0
#>  5     2 1         1
#>  6     2 2         1
#>  7     2 3         1
#>  8     2 4         1
#>  9     3 1         0
#> 10     3 2         0
#> # ℹ 343 more rows
…
